module go-cake

go 1.22.0

require (
	github.com/jmoiron/sqlx v1.3.5
	github.com/swaggo/swag v1.16.3
)

require (
	github.com/KyleBanks/depth v1.2.1 // indirect
	github.com/davecgh/go-spew v1.1.1 // indirect
	github.com/go-openapi/jsonpointer v0.19.5 // indirect
	github.com/go-openapi/jsonreference v0.20.0 // indirect
	github.com/go-openapi/spec v0.20.6 // indirect
	github.com/go-openapi/swag v0.19.15 // indirect
	github.com/josharian/intern v1.0.0 // indirect
	github.com/mailru/easyjson v0.7.6 // indirect
	github.com/pmezard/go-difflib v1.0.0 // indirect
	github.com/stretchr/objx v0.5.0 // indirect
	github.com/stretchr/testify v1.8.4 // indirect
	github.com/swaggo/files/v2 v2.0.0 // indirect
	golang.org/x/tools v0.7.0 // indirect
	gopkg.in/yaml.v2 v2.4.0 // indirect
	gopkg.in/yaml.v3 v3.0.1 // indirect
)

require (
	github.com/DATA-DOG/go-sqlmock v1.5.2
	github.com/mattn/go-sqlite3 v1.14.22
	github.com/swaggo/http-swagger/v2 v2.0.2
	golang.org/x/sys v0.15.0 // indirect
)
